usb104_qam16/test/qam16_data_packet_sim.vcd
$date
	Fri Dec  2 20:15:31 2022
$end
$version
	Icarus Verilog
$end
$timescale
	10ps
$end
$scope module qam16_data_tb $end
$var wire 1 ! upsampler_m_axis_real_tvalid $end
$var wire 16 " upsampler_m_axis_real_tdata [15:0] $end
$var wire 1 # upsampler_m_axis_imag_tvalid $end
$var wire 16 $ upsampler_m_axis_imag_tdata [15:0] $end
$var wire 1 % s_axis_tready $end
$var wire 1 & m_axis_tvalid $end
$var wire 1 ' m_axis_tready $end
$var wire 4 ( m_axis_tdata [3:0] $end
$var reg 1 ) aclk $end
$var reg 1 * resetn $end
$var reg 32 + s_axis_tdata [31:0] $end
$var reg 1 , s_axis_tvalid $end
$var reg 1 - upsampler_m_axis_imag_tready $end
$var reg 1 . upsampler_m_axis_real_tready $end
$scope module dut $end
$var wire 1 ) aclk $end
$var wire 1 * resetn $end
$var wire 32 / s_axis_tdata [31:0] $end
$var wire 1 , s_axis_tvalid $end
$var wire 1 % s_axis_tready $end
$var wire 1 ' m_axis_tready $end
$var reg 4 0 m_axis_tdata [3:0] $end
$var reg 1 & m_axis_tvalid $end
$var reg 3 1 packet_counter [2:0] $end
$var reg 32 2 s_axis_tdata_reg [31:0] $end
$var reg 1 3 s_axis_tvalid_reg $end
$upscope $end
$scope module dut2 $end
$var wire 1 ) aclk $end
$var wire 1 - m_axis_imag_tready $end
$var wire 1 . m_axis_real_tready $end
$var wire 1 * resetn $end
$var wire 4 4 s_axis_tdata [3:0] $end
$var wire 1 & s_axis_tvalid $end
$var wire 1 ' s_axis_tready $end
$var reg 16 5 m_axis_imag_tdata [15:0] $end
$var reg 1 # m_axis_imag_tvalid $end
$var reg 16 6 m_axis_real_tdata [15:0] $end
$var reg 1 ! m_axis_real_tvalid $end
$var reg 5 7 prescaler_counter [4:0] $end
$var reg 2 8 qam16_upsampler_state [1:0] $end
$var reg 5 9 upsampling_counter [4:0] $end
$upscope $end
$upscope $end
$enddefinitions $end
#0
$dumpvars
b0 9
b0 8
b0 7
b0 6
b0 5
b0 4
03
b0 2
b0 1
b0 0
b0 /
x.
x-
0,
b0 +
0*
1)
b0 (
1'
0&
1%
b0 $
0#
b0 "
0!
$end
#1000
0)
#2000
1)
#3000
0)
#4000
1)
#5000
0)
#6000
1)
#7000
0)
#8000
1)
#9000
0)
#10000
1)
#11000
0)
#12000
1)
#13000
0)
#14000
1)
#15000
0)
#16000
1)
#17000
0)
#18000
1)
#19000
0)
#20000
1)
1*
#21000
0)
#22000
0%
1,
b10000111011001010100001100100001 +
b10000111011001010100001100100001 /
1)
#23000
0)
#24000
13
b10000111011001010100001100100001 2
1-
1.
0,
1)
#25000
0)
#26000
0'
03
1&
b1 1
b1 (
b1 0
b1 4
1)
#27000
0)
#28000
0&
b1 8
1)
#29000
0)
#30000
b10 8
1)
#31000
0)
#32000
1#
1!
b1100010101101000 $
b1100010101101000 5
b1110110001111000 "
b1110110001111000 6
b1 9
b11 8
1)
#33000
0)
#34000
b1 7
0#
0!
1)
#35000
0)
#36000
b10 7
1)
#37000
0)
#38000
b11 7
1)
#39000
0)
#40000
b100 7
1)
#41000
0)
#42000
b101 7
1)
#43000
0)
#44000
b110 7
1)
#45000
0)
#46000
b111 7
1)
#47000
0)
#48000
b1000 7
1)
#49000
0)
#50000
b1001 7
1)
#51000
0)
#52000
b1010 7
1)
#53000
0)
#54000
b1011 7
b1 8
1)
#55000
0)
#56000
b0 7
b10 8
1)
#57000
0)
#58000
1#
1!
b0 $
b0 5
b0 "
b0 6
b10 9
b11 8
1)
#59000
0)
#60000
b1 7
0#
0!
1)
#61000
0)
#62000
b10 7
1)
#63000
0)
#64000
b11 7
1)
#65000
0)
#66000
b100 7
1)
#67000
0)
#68000
b101 7
1)
#69000
0)
#70000
b110 7
1)
#71000
0)
#72000
b111 7
1)
#73000
0)
#74000
b1000 7
1)
#75000
0)
#76000
b1001 7
1)
#77000
0)
#78000
b1010 7
1)
#79000
0)
#80000
b1011 7
b1 8
1)
#81000
0)
#82000
b0 7
b10 8
1)
#83000
0)
#84000
1#
1!
b11 9
b11 8
1)
#85000
0)
#86000
b1 7
0#
0!
1)
#87000
0)
#88000
b10 7
1)
#89000
0)
#90000
b11 7
1)
#91000
0)
#92000
b100 7
1)
#93000
0)
#94000
b101 7
1)
#95000
0)
#96000
b110 7
1)
#97000
0)
#98000
b111 7
1)
#99000
0)
#100000
b1000 7
1)
#101000
0)
#102000
b1001 7
1)
#103000
0)
#104000
b1010 7
1)
#105000
0)
#106000
b1011 7
b1 8
1)
#107000
0)
#108000
b0 7
b10 8
1)
#109000
0)
#110000
1#
1!
b100 9
b11 8
1)
#111000
0)
#112000
b1 7
0#
0!
1)
#113000
0)
#114000
b10 7
1)
#115000
0)
#116000
b11 7
1)
#117000
0)
#118000
b100 7
1)
#119000
0)
#120000
b101 7
1)
#121000
0)
#122000
b110 7
1)
#123000
0)
#124000
b111 7
1)
#125000
0)
#126000
b1000 7
1)
#127000
0)
#128000
b1001 7
1)
#129000
0)
#130000
b1010 7
1)
#131000
0)
#132000
b1011 7
b1 8
1)
#133000
0)
#134000
b0 7
b10 8
1)
#135000
0)
#136000
1#
1!
b101 9
b11 8
1)
#137000
0)
#138000
b1 7
0#
0!
1)
#139000
0)
#140000
b10 7
1)
#141000
0)
#142000
b11 7
1)
#143000
0)
#144000
b100 7
1)
#145000
0)
#146000
b101 7
1)
#147000
0)
#148000
b110 7
1)
#149000
0)
#150000
b111 7
1)
#151000
0)
#152000
b1000 7
1)
#153000
0)
#154000
b1001 7
1)
#155000
0)
#156000
b1010 7
1)
#157000
0)
#158000
b1011 7
b1 8
1)
#159000
0)
#160000
b0 7
b10 8
1)
#161000
0)
#162000
1#
1!
b110 9
b11 8
1)
#163000
0)
#164000
b1 7
0#
0!
1)
#165000
0)
#166000
b10 7
1)
#167000
0)
#168000
b11 7
1)
#169000
0)
#170000
b100 7
1)
#171000
0)
#172000
b101 7
1)
#173000
0)
#174000
b110 7
1)
#175000
0)
#176000
b111 7
1)
#177000
0)
#178000
b1000 7
1)
#179000
0)
#180000
b1001 7
1)
#181000
0)
#182000
b1010 7
1)
#183000
0)
#184000
b1011 7
b1 8
1)
#185000
0)
#186000
b0 7
b10 8
1)
#187000
0)
#188000
1#
1!
b111 9
b11 8
1)
#189000
0)
#190000
b1 7
0#
0!
1)
#191000
0)
#192000
b10 7
1)
#193000
0)
#194000
b11 7
1)
#195000
0)
#196000
b100 7
1)
#197000
0)
#198000
b101 7
1)
#199000
0)
#200000
b110 7
1)
#201000
0)
#202000
b111 7
1)
#203000
0)
#204000
b1000 7
1)
#205000
0)
#206000
b1001 7
1)
#207000
0)
#208000
b1010 7
1)
#209000
0)
#210000
b1011 7
b1 8
1)
#211000
0)
#212000
b0 7
b10 8
1)
#213000
0)
#214000
1#
1!
b1000 9
b11 8
1)
#215000
0)
#216000
b1 7
0#
0!
1)
#217000
0)
#218000
b10 7
1)
#219000
0)
#220000
b11 7
1)
#221000
0)
#222000
b100 7
1)
#223000
0)
#224000
b101 7
1)
#225000
0)
#226000
b110 7
1)
#227000
0)
#228000
b111 7
1)
#229000
0)
#230000
b1000 7
1)
#231000
0)
#232000
b1001 7
1)
#233000
0)
#234000
b1010 7
1)
#235000
0)
#236000
b1011 7
b1 8
1)
#237000
0)
#238000
b0 7
b10 8
1)
#239000
0)
#240000
1#
1!
b1001 9
b11 8
1)
#241000
0)
#242000
b1 7
0#
0!
1)
#243000
0)
#244000
b10 7
1)
#245000
0)
#246000
b11 7
1)
#247000
0)
#248000
b100 7
1)
#249000
0)
#250000
b101 7
1)
#251000
0)
#252000
b110 7
1)
#253000
0)
#254000
b111 7
1)
#255000
0)
#256000
b1000 7
1)
#257000
0)
#258000
b1001 7
1)
#259000
0)
#260000
b1010 7
1)
#261000
0)
#262000
b1011 7
b1 8
1)
#263000
0)
#264000
b0 7
b10 8
1)
#265000
0)
#266000
1#
1!
b1010 9
b11 8
1)
#267000
0)
#268000
b1 7
0#
0!
1)
#269000
0)
#270000
b10 7
1)
#271000
0)
#272000
b11 7
1)
#273000
0)
#274000
b100 7
1)
#275000
0)
#276000
b101 7
1)
#277000
0)
#278000
b110 7
1)
#279000
0)
#280000
b111 7
1)
#281000
0)
#282000
b1000 7
1)
#283000
0)
#284000
b1001 7
1)
#285000
0)
#286000
b1010 7
1)
#287000
0)
#288000
b1011 7
b1 8
1)
#289000
0)
#290000
1'
b0 7
b0 8
1)
#291000
0)
#292000
0'
1&
b10 1
b10 (
b10 0
b10 4
b0 9
1)
#293000
0)
#294000
b1 8
0&
1)
#295000
0)
#296000
b10 8
1)
#297000
0)
#298000
1#
1!
b1100010101101000 $
b1100010101101000 5
b11101010011000 "
b11101010011000 6
b1 9
b11 8
1)
#299000
0)
#300000
b1 7
0#
0!
1)
#301000
0)
#302000
b10 7
1)
#303000
0)
#304000
b11 7
1)
#305000
0)
#306000
b100 7
1)
#307000
0)
#308000
b101 7
1)
#309000
0)
#310000
b110 7
1)
#311000
0)
#312000
b111 7
1)
#313000
0)
#314000
b1000 7
1)
#315000
0)
#316000
b1001 7
1)
#317000
0)
#318000
b1010 7
1)
#319000
0)
#320000
b1011 7
b1 8
1)
#321000
0)
#322000
b0 7
b10 8
1)
#323000
0)
#324000
1#
1!
b0 $
b0 5
b0 "
b0 6
b10 9
b11 8
1)
#325000
0)
#326000
b1 7
0#
0!
1)
#327000
0)
#328000
b10 7
1)
#329000
0)
#330000
b11 7
1)
#331000
0)
#332000
b100 7
1)
#333000
0)
#334000
b101 7
1)
#335000
0)
#336000
b110 7
1)
#337000
0)
#338000
b111 7
1)
#339000
0)
#340000
b1000 7
1)
#341000
0)
#342000
b1001 7
1)
#343000
0)
#344000
b1010 7
1)
#345000
0)
#346000
b1011 7
b1 8
1)
#347000
0)
#348000
b0 7
b10 8
1)
#349000
0)
#350000
1#
1!
b11 9
b11 8
1)
#351000
0)
#352000
b1 7
0#
0!
1)
#353000
0)
#354000
b10 7
1)
#355000
0)
#356000
b11 7
1)
#357000
0)
#358000
b100 7
1)
#359000
0)
#360000
b101 7
1)
#361000
0)
#362000
b110 7
1)
#363000
0)
#364000
b111 7
1)
#365000
0)
#366000
b1000 7
1)
#367000
0)
#368000
b1001 7
1)
#369000
0)
#370000
b1010 7
1)
#371000
0)
#372000
b1011 7
b1 8
1)
#373000
0)
#374000
b0 7
b10 8
1)
#375000
0)
#376000
1#
1!
b100 9
b11 8
1)
#377000
0)
#378000
b1 7
0#
0!
1)
#379000
0)
#380000
b10 7
1)
#381000
0)
#382000
b11 7
1)
#383000
0)
#384000
b100 7
1)
#385000
0)
#386000
b101 7
1)
#387000
0)
#388000
b110 7
1)
#389000
0)
#390000
b111 7
1)
#391000
0)
#392000
b1000 7
1)
#393000
0)
#394000
b1001 7
1)
#395000
0)
#396000
b1010 7
1)
#397000
0)
#398000
b1011 7
b1 8
1)
#399000
0)
#400000
b0 7
b10 8
1)
#401000
0)
#402000
1#
1!
b101 9
b11 8
1)
#403000
0)
#404000
b1 7
0#
0!
1)
#405000
0)
#406000
b10 7
1)
#407000
0)
#408000
b11 7
1)
#409000
0)
#410000
b100 7
1)
#411000
0)
#412000
b101 7
1)
#413000
0)
#414000
b110 7
1)
#415000
0)
#416000
b111 7
1)
#417000
0)
#418000
b1000 7
1)
#419000
0)
#420000
b1001 7
1)
#421000
0)
#422000
b1010 7
1)
#423000
0)
#424000
b1011 7
b1 8
1)
